<svg xmlns="http://www.w3.org/2000/svg" id="Platinum_Inactive" width="53" height="18" data-name="Platinum Inactive" viewBox="0 0 53 18">
    <defs>
        <style>
            .cls-1{fill:url(#linear-gradient)}.cls-2{fill:#fff;font-size:10px;font-family:Roboto-Regular,Roboto}
        </style>
        <linearGradient id="linear-gradient" x1=".158" x2=".874" y1=".5" y2=".5" gradientUnits="objectBoundingBox">
            <stop offset="0" stop-color="#afa271"/>
            <stop offset="1" stop-color="#83733b"/>
        </linearGradient>
    </defs>
    <g id="Group_1439" data-name="Group 1439" transform="translate(-227 -351)">
        <rect id="Rectangle_338" width="53" height="18" class="cls-1" data-name="Rectangle 338" rx="5" transform="translate(227 351)"/>
        <text id="Platinum" class="cls-2" transform="translate(234 364)">
            <tspan x="0" y="0">Platinum</tspan>
        </text>
    </g>
</svg>
