<svg xmlns="http://www.w3.org/2000/svg" xmlns:xlink="http://www.w3.org/1999/xlink" width="106.131" height="96.28" viewBox="0 0 106.131 96.28">
  <defs>
    <linearGradient id="linear-gradient" x1="0.6" y1="0.428" x2="0.301" y2="0.127" gradientUnits="objectBoundingBox">
      <stop offset="0" stop-color="#afa271"/>
      <stop offset="1" stop-color="#83733b"/>
    </linearGradient>
    <filter id="Path_1945-2_1_" x="0" y="0" width="106.131" height="96.28" filterUnits="userSpaceOnUse">
      <feOffset dy="3" input="SourceAlpha"/>
      <feGaussianBlur stdDeviation="3" result="blur"/>
      <feFlood flood-opacity="0.161"/>
      <feComposite operator="in" in2="blur"/>
      <feComposite in="SourceGraphic"/>
    </filter>
  </defs>
  <g id="Group_2888" data-name="Group 2888" transform="translate(-456 -1469)">
    <path id="Subtraction_1" data-name="Subtraction 1" d="M5517-11163.843v-8.757l4.367,3.879-4.365,4.876Zm-79.263-79.169h-8.045l3.555-3.988,4.488,3.986Z" transform="translate(-4968 12722.012)" fill="#83733b"/>
    <g transform="matrix(1, 0, 0, 1, 456, 1469)" filter="url(#Path_1945-2_1_)">
      <path id="Path_1945-2_1_2" data-name="Path_1945-2_1_" d="M11.58,0,99.711,78.28V41.546L52.935,0Z" transform="translate(-2.58 6)" fill="url(#linear-gradient)"/>
    </g>
    <text id="PLATINUM" transform="translate(517.054 1508.258) rotate(41.5)" fill="#fff" font-size="10" font-family="Roboto-Regular, Roboto"><tspan x="-24.353" y="0">PLATINUM</tspan></text>
  </g>
</svg>
